HR data: fictional staff records
…
HR_transaction <- read_csv("df_HR_transaction.csv")

## 
## -- Column specification --------------------------------------------------------
## cols(
##   emp_id = col_character(),
##   transaction_num = col_character(),
##   transaction_date = col_date(format = ""),
##   occupation = col_character(),
##   occ_step = col_double()
## )

HR_main

## # A tibble: 999 x 6
##    emp_id start_date equity_woman equity_visible_~ equity_aborigin~
##    <chr>  <date>     <lgl>        <lgl>            <lgl>           
##  1 ID001  2010-01-02 TRUE         FALSE            FALSE           
##  2 ID002  2010-01-03 TRUE         TRUE             TRUE            
##  3 ID003  2010-01-08 FALSE        FALSE            TRUE            
##  4 ID004  2010-01-10 TRUE         TRUE             FALSE           
##  5 ID005  2010-01-16 TRUE         FALSE            FALSE           
##  6 ID006  2010-01-17 TRUE         FALSE            FALSE           
##  7 ID007  2010-01-21 TRUE         FALSE            FALSE           
##  8 ID008  2010-01-25 FALSE        FALSE            FALSE           
##  9 ID009  2010-01-27 TRUE         FALSE            FALSE           
## 10 ID010  2010-01-30 TRUE         FALSE            FALSE           
## # ... with 989 more rows, and 1 more variable: equity_disability <lgl>

HR_transaction

## # A tibble: 2,997 x 5
##    emp_id transaction_num transaction_date occupation occ_step
##    <chr>  <chr>           <date>           <chr>         <dbl>
##  1 ID001  start_date      2010-01-02       D                 3
##  2 ID001  trans1          2019-12-20       E                 1
##  3 ID001  trans2          NA               <NA>             NA
##  4 ID002  start_date      2010-01-03       C                 3
##  5 ID002  trans1          2020-03-18       D                 1
##  6 ID002  trans2          2020-10-16       E                 1
##  7 ID003  start_date      2010-01-08       A                 3
##  8 ID003  trans1          2013-02-18       B                 1
##  9 ID003  trans2          2013-08-15       C                 3
## 10 ID004  start_date      2010-01-10       B                 3
## # ... with 2,987 more rows

Use distinct to check that HR_main$emp_id is a primary key

HR_main %>%
  distinct(HR_main$emp_id)

## # A tibble: 999 x 1
##    `HR_main$emp_id`
##    <chr>           
##  1 ID001           
##  2 ID002           
##  3 ID003           
##  4 ID004           
##  5 ID005           
##  6 ID006           
##  7 ID007           
##  8 ID008           
##  9 ID009           
## 10 ID010           
## # ... with 989 more rows

Use distinct to check that HR_transaction$emp_id is a primary key

HR_transaction %>%
  distinct(HR_transaction$emp_id)

## # A tibble: 999 x 1
##    `HR_transaction$emp_id`
##    <chr>                  
##  1 ID001                  
##  2 ID002                  
##  3 ID003                  
##  4 ID004                  
##  5 ID005                  
##  6 ID006                  
##  7 ID007                  
##  8 ID008                  
##  9 ID009                  
## 10 ID010                  
## # ... with 989 more rows

Using Lubridate to create a month/year column

HR_main <- HR_main %>%
  mutate(
    Month_Yr = format_ISO8601(start_date, precision = "ym"),
    Year = format_ISO8601(start_date, precision = "y")
    
  )

HR_main

## # A tibble: 999 x 8
##    emp_id start_date equity_woman equity_visible_~ equity_aborigin~
##    <chr>  <date>     <lgl>        <lgl>            <lgl>           
##  1 ID001  2010-01-02 TRUE         FALSE            FALSE           
##  2 ID002  2010-01-03 TRUE         TRUE             TRUE            
##  3 ID003  2010-01-08 FALSE        FALSE            TRUE            
##  4 ID004  2010-01-10 TRUE         TRUE             FALSE           
##  5 ID005  2010-01-16 TRUE         FALSE            FALSE           
##  6 ID006  2010-01-17 TRUE         FALSE            FALSE           
##  7 ID007  2010-01-21 TRUE         FALSE            FALSE           
##  8 ID008  2010-01-25 FALSE        FALSE            FALSE           
##  9 ID009  2010-01-27 TRUE         FALSE            FALSE           
## 10 ID010  2010-01-30 TRUE         FALSE            FALSE           
## # ... with 989 more rows, and 3 more variables: equity_disability <lgl>,
## #   Month_Yr <chr>, Year <chr>
…
